{"results":[{"vote_count":1787,"id":284053,"video":false,"vote_average":7.6,"title":"Thor: Ragnarok","popularity":802.609655,"poster_path":"\/oSLd5GYGsiGgzDPKTwQh7wamO8t.jpg","original_language":"en","original_title":"Thor: Ragnarok","genre_ids":[28,12,35,14,878],"backdrop_path":"\/wBzMnQ01R9w58W6ucltdYfOyP4j.jpg","adult":false,"overview":"Thor is imprisoned on the other side of the universe and finds himself in a race against time to get back to Asgard to stop Ragnarok, the destruction of his homeworld and the end of Asgardian civilization, at the hands of an all-powerful new threat, the ruthless Hela.","release_date":"2017-10-25"},{"vote_count":757,"id":141052,"video":false,"vote_average":7,"title":"Justice League","popularity":561.898839,"poster_path":"\/9rtrRGeRnL0JKtu9IMBWsmlmmZz.jpg","original_language":"en","original_title":"Justice League","genre_ids":[28,12,14,878],"backdrop_path":"\/o5T8rZxoWSBMYwjsUFUqTt6uMQB.jpg","adult":false,"overview":"Fueled by his restored faith in humanity and inspired by Superman's selfless act, Bruce Wayne and Diana Prince assemble a team of metahumans consisting of Barry Allen, Arthur Curry, and Victor Stone to face the catastrophic threat of Steppenwolf and the Parademons who are on the hunt for three Mother Boxes on Earth.","release_date":"2017-11-15"},{"vote_count":473,"id":440021,"video":false,"vote_average":6.4,"title":"Happy Death Day","popularity":519.582153,"poster_path":"\/cTaEIUYTt52ooq9quVbAQ7NpGwo.jpg","original_language":"en","original_title":"Happy Death Day","genre_ids":[27,9648,53],"backdrop_path":"\/eGx5OfOdvM0gkHdmkLe3hcJuEIT.jpg","adult":false,"overview":"A college student relives the day of her murder over and over again as she tries to discover her killer's identity.","release_date":"2017-10-12"},{"vote_count":333,"id":274855,"video":false,"vote_average":5.9,"title":"Geostorm","popularity":455.617086,"poster_path":"\/nrsx0jEaBgXq4PWo7SooSnYJTv.jpg","original_language":"en","original_title":"Geostorm","genre_ids":[28,878,53],"backdrop_path":"\/lhTtnsPmEYUJB7nOaTKJzYoxJ7X.jpg","adult":false,"overview":"Gerard Butler playing a stubborn but charming satellite designer who, when the world’s climate-controlling satellites malfunction, has to work together with his estranged brother to save the world from a man-made storm of epic proportions. A trip into space follows, while on Earth a plot to assassinate the president begins to unfold.","release_date":"2017-10-13"},{"vote_count":276,"id":298250,"video":false,"vote_average":6,"title":"Jigsaw","popularity":431.728658,"poster_path":"\/zUbUtxiTdEgWnkXY945gtYYqBZ1.jpg","original_language":"en","original_title":"Jigsaw","genre_ids":[27,53],"backdrop_path":"\/ytKpFaLMpFWnuSXStz1GHrtTt6R.jpg","adult":false,"overview":"Dead bodies begin to turn up all over the city, each meeting their demise in a variety of grisly ways. All investigations begin to point the finger at deceased killer John Kramer.","release_date":"2017-10-20"},{"vote_count":198,"id":372343,"video":false,"vote_average":5,"title":"The Snowman","popularity":391.6351,"poster_path":"\/bQHgpTVsAWjNQWS0frsl7DlzLX1.jpg","original_language":"en","original_title":"The Snowman","genre_ids":[80,18,27,9648,53],"backdrop_path":"\/tAg6KUBANIVbYUpTHy5oKibhhw3.jpg","adult":false,"overview":"Detective Harry Hole investigates the disappearance of a woman whose pink scarf is found wrapped around an ominous looking snowman.","release_date":"2017-10-12"},{"vote_count":164,"id":390062,"video":false,"vote_average":5.3,"title":"Jungle","popularity":355.323139,"poster_path":"\/tDgxknTVwrScxpCYyGUjXSn5NRk.jpg","original_language":"en","original_title":"Jungle","genre_ids":[12,18,53],"backdrop_path":"\/go1a6YwrVTMrNNIfaRpBRp5pIzV.jpg","adult":false,"overview":"A mysterious guide escorts an enthusiastic adventurer and his friend into the Amazon jungle, but their journey turns into a terrifying ordeal as the darkest elements of human nature and the deadliest threats of the wild force them to fight for survival.","release_date":"2017-10-20"},{"vote_count":2378,"id":281338,"video":false,"vote_average":6.8,"title":"War for the Planet of the Apes","popularity":336.877505,"poster_path":"\/3vYhLLxrTtZLysXtIWktmd57Snv.jpg","original_language":"en","original_title":"War for the Planet of the Apes","genre_ids":[18,878,10752],"backdrop_path":"\/ulMscezy9YX0bhknvJbZoUgQxO5.jpg","adult":false,"overview":"Caesar and his apes are forced into a deadly conflict with an army of humans led by a ruthless Colonel. After the apes suffer unimaginable losses, Caesar wrestles with his darker instincts and begins his own mythic quest to avenge his kind. As the journey finally brings them face to face, Caesar and the Colonel are pitted against each other in an epic battle that will determine the fate of both their species and the future of the planet.","release_date":"2017-07-11"},{"vote_count":164,"id":459202,"video":false,"vote_average":5.4,"title":"Boo 2! A Madea Halloween","popularity":248.64376,"poster_path":"\/5nvP4etJ8ecQv8qZM08dK4BAzdK.jpg","original_language":"en","original_title":"Boo 2! A Madea Halloween","genre_ids":[27,35],"backdrop_path":"\/78kN1a1AHxAPEh7hQhNjDQhLZ9W.jpg","adult":false,"overview":"Madea and the gang encounter monsters, goblins and boogeymen at a haunted campground.","release_date":"2017-10-20"},{"vote_count":1207,"id":341013,"video":false,"vote_average":6.1,"title":"Atomic Blonde","popularity":234.597083,"poster_path":"\/kV9R5h0Yct1kR8Hf8sJ1nX0Vz4x.jpg","original_language":"en","original_title":"Atomic Blonde","genre_ids":[53,9648,28],"backdrop_path":"\/lj3wkYkJGkfmDfXkKrVarSJpFD4.jpg","adult":false,"overview":"An undercover MI6 agent is sent to Berlin during the Cold War to investigate the murder of a fellow agent and recover a missing list of double agents.","release_date":"2017-07-26"},{"vote_count":198,"id":392044,"video":false,"vote_average":6.6,"title":"Murder on the Orient Express","popularity":189.683156,"poster_path":"\/iBlfxlw8qwtUS0R8YjIU7JtM6LM.jpg","original_language":"en","original_title":"Murder on the Orient Express","genre_ids":[80,18,9648],"backdrop_path":"\/tvKcA4OFUiZkNeTJmmTkNqKHMMg.jpg","adult":false,"overview":"Genius Belgian detective Hercule Poirot investigates the murder of an American tycoon aboard the Orient Express train.","release_date":"2017-11-03"},{"vote_count":1790,"id":335984,"video":false,"vote_average":7.4,"title":"Blade Runner 2049","popularity":176.258691,"poster_path":"\/aMpyrCizvSdc0UIMblJ1srVgAEF.jpg","original_language":"en","original_title":"Blade Runner 2049","genre_ids":[9648,878,53],"backdrop_path":"\/mVr0UiqyltcfqxbAUcLl9zWL8ah.jpg","adult":false,"overview":"Thirty years after the events of the first film, a new blade runner, LAPD Officer K, unearths a long-buried secret that has the potential to plunge what's left of society into chaos. K's discovery leads him on a quest to find Rick Deckard, a former LAPD blade runner who has been missing for 30 years.","release_date":"2017-10-04"},{"vote_count":67,"id":419680,"video":false,"vote_average":5.7,"title":"Daddy's Home 2","popularity":170.526824,"poster_path":"\/rF2IoKL0IFmumEXQFUuB8LajTYP.jpg","original_language":"en","original_title":"Daddy's Home 2","genre_ids":[18,35],"backdrop_path":"\/lMDyuHzBhx3zNAv48vYzmgcJCCD.jpg","adult":false,"overview":"Brad and Dusty must deal with their intrusive fathers during the holidays.","release_date":"2017-11-09"},{"vote_count":68,"id":399057,"video":false,"vote_average":6,"title":"The Killing of a Sacred Deer","popularity":156.426736,"poster_path":"\/e4DGlsc9g0h5AyoyvvAuIRnofN7.jpg","original_language":"en","original_title":"The Killing of a Sacred Deer","genre_ids":[18,27,9648,53],"backdrop_path":"\/854uDv6rzbwF82jOtFe931SMrRs.jpg","adult":false,"overview":"A teenager's attempts to bring a brilliant surgeon into his dysfunctional family take an unexpected turn.","release_date":"2017-10-20"},{"vote_count":11,"id":413362,"video":false,"vote_average":5.5,"title":"Roman J. Israel, Esq.","popularity":143.874888,"poster_path":"\/8e5IGlLrVjwrlDcRtzSQkXhJFWl.jpg","original_language":"en","original_title":"Roman J. Israel, Esq.","genre_ids":[53,18],"backdrop_path":"\/sY2ttr9jdPFlTVm5gxFkRW2ELUi.jpg","adult":false,"overview":"Hard-nosed liberal lawyer Roman J. Israel has been fighting the good fight forever while others take the credit. When his partner, the firm’s frontman, has a heart attack, Israel suddenly takes on that role. He soon discovers some unsettling truths about the firm--truths that conflict with his values of helping the poor and dispossessed--and finds himself in an existential crisis that leads to extreme actions.","release_date":"2017-11-10"},{"vote_count":42,"id":395458,"video":false,"vote_average":4.5,"title":"Suburbicon","popularity":136.245581,"poster_path":"\/a3IHgSwO5jWPLcGjKqbQ7pxVGkq.jpg","original_language":"en","original_title":"Suburbicon","genre_ids":[18,28,80,9648],"backdrop_path":"\/egHeYqgrutiRAzGGWTKp3zqUw0j.jpg","adult":false,"overview":"A crime mystery set in the quiet family town of Suburbicon during the 1950s, where the best and worst of humanity is hilariously reflected through the deeds of seemingly ordinary people. When a home invasion turns deadly, a picture-perfect family turns to blackmail, revenge, and murder.","release_date":"2017-10-26"},{"vote_count":55,"id":395991,"video":false,"vote_average":5.8,"title":"Only the Brave","popularity":134.685921,"poster_path":"\/lC7WdUNLOJI3sllaDGNdFy2GT8g.jpg","original_language":"en","original_title":"Only the Brave","genre_ids":[18],"backdrop_path":"\/8wI0M7HDHhDsoxMCkcAVUx7O6DX.jpg","adult":false,"overview":"Members of the Granite Mountain Hotshots battle deadly wildfires to save an Arizona town.","release_date":"2017-10-19"},{"vote_count":1385,"id":396422,"video":false,"vote_average":6.4,"title":"Annabelle: Creation","popularity":133.017638,"poster_path":"\/tb86j8jVCVsdZnzf8I6cIi65IeM.jpg","original_language":"en","original_title":"Annabelle: Creation","genre_ids":[53,27],"backdrop_path":"\/o8u0NyEigCEaZHBdCYTRfXR8U4i.jpg","adult":false,"overview":"Several years after the tragic death of their little girl, a dollmaker and his wife welcome a nun and several girls from a shuttered orphanage into their home, soon becoming the target of the dollmaker's possessed creation, Annabelle.","release_date":"2017-08-03"},{"vote_count":6,"id":355547,"video":false,"vote_average":3.9,"title":"The Star","popularity":129.352956,"poster_path":"\/tEbDvivUfsCupngKIfMJJ725eAD.jpg","original_language":"en","original_title":"The Star","genre_ids":[35,16,12],"backdrop_path":"\/iJ5dkwIHQnq8dfmwSLh7dpETNhi.jpg","adult":false,"overview":"A small but brave donkey and his animal friends become the unsung heroes of the greatest story ever told, the first Christmas.","release_date":"2017-11-15"},{"vote_count":24,"id":383709,"video":false,"vote_average":5.8,"title":"Wonderstruck","popularity":119.970566,"poster_path":"\/yjDAt9K3FKU1itABgIXl6YvLsVE.jpg","original_language":"en","original_title":"Wonderstruck","genre_ids":[18],"backdrop_path":"\/eUSNKg5tlocYAQs5nHlDxyAefuB.jpg","adult":false,"overview":"The story of a young boy in the Midwest is told simultaneously with a tale about a young girl in New York from fifty years ago as they both seek the same mysterious connection.","release_date":"2017-10-20"}],"page":1,"total_results":1122,"dates":{"maximum":"2017-11-28","minimum":"2017-10-11"},"total_pages":57}